## Interface: 11304
## Title: Pandemic
## Notes: Pandemic challenge
## Version: 0.1
## Author: WobLight
## SavedVariables: PandemicSettings
## SavedVariablesPerCharacter: PandemicProfile
## Dependencies: EmeraldFramework
Pandemic.lua
